{
	"deviceOrientation": "portrait",
	"networkTimeout": {
		"request": 5000,
		"connectSocket": 5000,
		"uploadFile": 5000,
		"downloadFile": 5000
	},
	"openDataContext": "openDataContext",
	"navigateToMiniProgramAppIdList": [
		"wx32f39e398bd85f6d",
		"wx17c68d004a3e2685",
		"wx3419d17f02fbe61a",
		"wxbd66bb89ec2b9805",
		"wx03eb4405d98fd065",
		"wx0154c51079b81af8",
		"wxbe04dd8bfd5ad65c",
		"wx5857c62152010a85",
		"wx36b6c21b34074aa6",
		"wx8113af51e011f04c"
	]
}