{
	"groups": [
		{
			"name": "local",
			"keys": "2048_title,rank,ready_bg,ready_more,share_1,start_game,voice_open_2,voice_close_2,game_bg,rule,white_2,game_calc_bg,again_game,challenge,score_bg,tip_bg,game_restart,relife_video,start_light,xuanfen,red_cycle,rainbow_cycle,bo,bo_small,star_light,flaunt,daily_reward,daily_reward_bg,free_get,daily_box,more_01,more_02,more_03,more_04,more_05,more_06,more_07,more_08,more_09,more_010,white_3,moreGameBtn,moreGame_bg,reward_close,pause_1,goon_2,return_2,restart_2,relife_bg_1,moreGameBtn_open,intro_ensure,restart_game_tip,board_return,red_pakage_bg,red_pakage,prepaid_recharge,change_1,change,phoneEnterBg,red_package_unlock,board_share,free_get_1"
		}
	],
	"resources": [
		{
			"name": "2048_title",
			"type": "image",
			"url": "assets/2048_title.png"
		},
		{
			"name": "rank",
			"type": "image",
			"url": "assets/rank.png"
		},
		{
			"name": "ready_bg",
			"type": "image",
			"url": "assets/ready_bg.png"
		},
		{
			"name": "ready_more",
			"type": "image",
			"url": "assets/ready_more.png"
		},
		{
			"name": "share_1",
			"type": "image",
			"url": "assets/share_1.png"
		},
		{
			"name": "start_game",
			"type": "image",
			"url": "assets/start_game.png"
		},
		{
			"name": "voice_open_2",
			"type": "image",
			"url": "assets/voice_open.png"
		},
		{
			"name": "voice_close_2",
			"type": "image",
			"url": "assets/voice_close.png"
		},
		{
			"name": "game_bg",
			"type": "image",
			"url": "assets/game_bg.png"
		},
		{
			"name": "rule",
			"type": "image",
			"url": "assets/rule.png"
		},
		{
			"name": "white_2",
			"type": "image",
			"url": "assets/white_2.png"
		},
		{
			"name": "game_calc_bg",
			"type": "image",
			"url": "assets/game_calc_bg.png"
		},
		{
			"name": "again_game",
			"type": "image",
			"url": "assets/again_game.png"
		},
		{
			"name": "challenge",
			"type": "image",
			"url": "assets/challenge.png"
		},
		{
			"name": "score_bg",
			"type": "image",
			"url": "assets/score_bg.png"
		},
		{
			"name": "tip_bg",
			"type": "image",
			"url": "assets/tip_bg.png"
		},
		{
			"name": "game_restart",
			"type": "image",
			"url": "assets/game_restart.png"
		},
		{
			"name": "relife_video",
			"type": "image",
			"url": "assets/relife_video.png"
		},
		{
			"name": "start_light",
			"type": "image",
			"url": "assets/start_light.png"
		},
		{
			"name": "xuanfen",
			"type": "image",
			"url": "assets/xuanfen.png"
		},
		{
			"name": "red_cycle",
			"type": "image",
			"url": "assets/red_cycle.png"
		},
		{
			"name": "rainbow_cycle",
			"type": "image",
			"url": "assets/rainbow_cycle.png"
		},
		{
			"name": "bo",
			"type": "image",
			"url": "assets/bo.png"
		},
		{
			"name": "bo_small",
			"type": "image",
			"url": "assets/bo_small.png"
		},
		{
			"name": "star_light",
			"type": "image",
			"url": "assets/star_light.png"
		},
		{
			"name": "flaunt",
			"type": "image",
			"url": "assets/flaunt.png"
		},
		{
			"name": "daily_reward",
			"type": "image",
			"url": "assets/daily_reward.png"
		},
		{
			"name": "daily_reward_bg",
			"type": "image",
			"url": "assets/daily_reward_bg.png"
		},
		{
			"name": "daily_box",
			"type": "image",
			"url": "assets/daily_box.png"
		},
		{
			"name": "free_get",
			"type": "image",
			"url": "assets/free_get.png"
		},
		{
			"name": "more_01",
			"type": "image",
			"url": "assets/moreGame/01.jpg"
		},
		{
			"name": "more_02",
			"type": "image",
			"url": "assets/moreGame/02.jpg"
		},
		{
			"name": "more_03",
			"type": "image",
			"url": "assets/moreGame/03.jpg"
		},
		{
			"name": "more_04",
			"type": "image",
			"url": "assets/moreGame/04.jpg"
		},
		{
			"name": "more_05",
			"type": "image",
			"url": "assets/moreGame/05.jpg"
		},
		{
			"name": "more_06",
			"type": "image",
			"url": "assets/moreGame/06.jpg"
		},
		{
			"name": "more_07",
			"type": "image",
			"url": "assets/moreGame/07.jpg"
		},
		{
			"name": "more_08",
			"type": "image",
			"url": "assets/moreGame/08.jpg"
		},
		{
			"name": "more_09",
			"type": "image",
			"url": "assets/moreGame/09.png"
		},
		{
			"name": "more_010",
			"type": "image",
			"url": "assets/moreGame/10.jpg"
		},
		{
			"name": "white_3",
			"type": "image",
			"url": "assets/white_3.png"
		},
		{
			"name": "moreGameBtn",
			"type": "image",
			"url": "assets/moreGameBtn.png"
		},
		{
			"name": "moreGame_bg",
			"type": "image",
			"url": "assets/moreGame_bg.png"
		},
		{
			"name": "reward_close",
			"type": "image",
			"url": "assets/reward_close.png"
		},
		{
			"name": "pause_1",
			"type": "image",
			"url": "assets/pause_1.png"
		},
		{
			"name": "goon_2",
			"type": "image",
			"url": "assets/goon_2.png"
		},
		{
			"name": "restart_2",
			"type": "image",
			"url": "assets/restart_2.png"
		},
		{
			"name": "return_2",
			"type": "image",
			"url": "assets/return_2.png"
		},
		{
			"name": "relife_bg_1",
			"type": "image",
			"url": "assets/relife_bg_1.png"
		},
		{
			"name": "moreGameBtn_open",
			"type": "image",
			"url": "assets/moreGameBtn_open.png"
		},
		{
			"name": "intro_ensure",
			"type": "image",
			"url": "assets/intro_ensure.png"
		},
		{
			"name": "restart_game_tip",
			"type": "image",
			"url": "assets/intro_ensure.png"
		},
		{
			"name": "restart_game_tip",
			"type": "image",
			"url": "assets/restart_game_tip.png"
		},
		{
			"name": "board_return",
			"type": "image",
			"url": "assets/board_return.png"
		},
		{
			"name": "red_pakage_bg",
			"type": "image",
			"url": "assets/red_pakage_bg.png"
		},
		{
			"name": "red_pakage",
			"type": "image",
			"url": "assets/red_pakage.png"
		},
		{
			"name": "prepaid_recharge",
			"type": "image",
			"url": "assets/prepaid_recharge.png"
		},
		{
			"name": "change",
			"type": "image",
			"url": "assets/change.png"
		},
		{
			"name": "change_1",
			"type": "image",
			"url": "assets/change_1.png"
		},
		{
			"name": "phoneEnterBg",
			"type": "image",
			"url": "assets/phoneEnterBg.png"
		},
		{
			"name": "red_package_unlock",
			"type": "image",
			"url": "assets/red_package_unlock.png"
		},
		{
			"name": "board_share",
			"type": "image",
			"url": "assets/board_share.png"
		},
		{
			"name": "free_get_1",
			"type": "image",
			"url": "assets/free_get_1.png"
		}
	]
}
